Tidyverse and Tidymodels packages
…
broom::tidy(fit)
## # A tibble: 3 x 5
##   term        estimate std.error statistic  p.value
##   <chr>          <dbl>     <dbl>     <dbl>    <dbl>
## 1 (Intercept)   19.7       5.25       3.76 7.65e- 4
## 2 wt            -5.05      0.484    -10.4  2.52e-11
## 3 qsec           0.929     0.265      3.51 1.50e- 3

Note that the rownames are now added as a column, term, meaning that the data can be combined with other models. Note also that the columns have been given names like std_error and p.value that are more easily accessed than std_error and Pr(>|t|). This is true of all data frames broom returns: theyre designed so they can be processed in additional steps.

If you are interested in extracting per-observation information, such as fitted values and residuals, use the argument method, which adds these to the original data.

fit %>% 
  broom::augment()
## # A tibble: 32 x 11
##    .rownames   mpg    wt  qsec .fitted .se.fit  .resid   .hat .sigma
##  * <chr>     <dbl> <dbl> <dbl>   <dbl>   <dbl>   <dbl>  <dbl>  <dbl>
##  1 Mazda RX4  21    2.62  16.5    21.8   0.683 -0.815  0.0693   2.64
##  2 Mazda RX~  21    2.88  17.0    21.0   0.547 -0.0482 0.0444   2.64
##  3 Datsun 7~  22.8  2.32  18.6    25.3   0.640 -2.53   0.0607   2.60
##  4 Hornet 4~  21.4  3.22  19.4    21.6   0.623 -0.181  0.0576   2.64
##  5 Hornet S~  18.7  3.44  17.0    18.2   0.512  0.504  0.0389   2.64
##  6 Valiant    18.1  3.46  20.2    21.1   0.803 -2.97   0.0957   2.58
##  7 Duster 3~  14.3  3.57  15.8    16.4   0.701 -2.14   0.0729   2.61
##  8 Merc 240D  24.4  3.19  20      22.2   0.730  2.17   0.0791   2.61
##  9 Merc 230   22.8  3.15  22.9    25.1   1.41  -2.32   0.295    2.59
## 10 Merc 280   19.2  3.44  18.3    19.4   0.491 -0.185  0.0358   2.64
## # ... with 22 more rows, and 2 more variables: .cooksd <dbl>,
## #   .std.resid <dbl>
…
While broom is useful for summarizing the result of a single analysis in a consistent format, it is really designed for high-throughput applications, where you must combine results from multiple analyses. These could be subgrouped of data, analyses using different models, bootstrap replicates, permutations, and so on. In particular, it plays well with the nest/unnest functions in tidyr and the map function in purrr.

For purrr package, please refer this RStudio tutorial.

Lets try this on a simple dataset, the built-in Orange. We start by coercing Orange to a tibble. This gives a nicer method that will especially useful later on when we start working with list-columns.

library(broom)
library(tibble)

data("Orange")

Orange <- as_tibble(Orange)
Orange
## # A tibble: 35 x 3
##    Tree    age circumference
##  * <ord> <dbl>         <dbl>
##  1 1       118            30
##  2 1       484            58
##  3 1       664            87
##  4 1      1004           115
##  5 1      1231           120
##  6 1      1372           142
##  7 1      1582           145
##  8 2       118            33
##  9 2       484            69
## 10 2       664           111
## # ... with 25 more rows
…
You can just as easily use multiple predictors in the regressions, as shown here on the mtcars dataset. We nest the data into automatic and manual cars (the am column), then peform the regression within each nested tibble.

data("mtcars")
mtcars <- as_tibble(mtcars) # to play nicely with list-cols
mtcars
## # A tibble: 32 x 11
##      mpg   cyl  disp    hp  drat    wt  qsec    vs    am  gear  carb
##  * <dbl> <dbl> <dbl> <dbl> <dbl> <dbl> <dbl> <dbl> <dbl> <dbl> <dbl>
##  1  21       6  160    110  3.9   2.62  16.5     0     1     4     4
##  2  21       6  160    110  3.9   2.88  17.0     0     1     4     4
##  3  22.8     4  108     93  3.85  2.32  18.6     1     1     4     1
##  4  21.4     6  258    110  3.08  3.22  19.4     1     0     3     1
##  5  18.7     8  360    175  3.15  3.44  17.0     0     0     3     2
##  6  18.1     6  225    105  2.76  3.46  20.2     1     0     3     1
##  7  14.3     8  360    245  3.21  3.57  15.8     0     0     3     4
##  8  24.4     4  147.    62  3.69  3.19  20       1     0     4     2
##  9  22.8     4  141.    95  3.92  3.15  22.9     1     0     4     2
## 10  19.2     6  168.   123  3.92  3.44  18.3     1     0     4     4
## # ... with 22 more rows
…
regressions %>% 
  unnest(glanced, .drop=T)
## # A tibble: 2 x 12
##      am r.squared adj.r.squared sigma statistic p.value    df   logLik
##   <dbl>     <dbl>         <dbl> <dbl>     <dbl>   <dbl> <int>    <dbl>
## 1     1     0.833         0.778 0.291     15.0  7.59e-4     4 -5.80e-3
## 2     0     0.625         0.550 0.522      8.32 1.70e-3     4 -1.24e+1
## # ... with 4 more variables: AIC <dbl>, BIC <dbl>, deviance <dbl>,
## #   df.residual <int>

regressions %>% 
  unnest(augumented)
## # A tibble: 32 x 12
##       am    wt   mpg  qsec  gear .fitted .se.fit  .resid  .hat .sigma
##    <dbl> <dbl> <dbl> <dbl> <dbl>   <dbl>   <dbl>   <dbl> <dbl>  <dbl>
##  1     1  2.62  21    16.5     4    2.73   0.209 -0.107  0.517  0.304
##  2     1  2.88  21    17.0     4    2.75   0.152  0.126  0.273  0.304
##  3     1  2.32  22.8  18.6     4    2.63   0.163 -0.310  0.312  0.279
##  4     1  2.2   32.4  19.5     4    1.70   0.137  0.505  0.223  0.233
##  5     1  1.62  30.4  18.5     4    1.86   0.151 -0.244  0.269  0.292
##  6     1  1.84  33.9  19.9     4    1.56   0.156  0.274  0.286  0.286
##  7     1  1.94  27.3  18.9     4    2.19   0.113 -0.253  0.151  0.293
##  8     1  2.14  26    16.7     5    2.21   0.153 -0.0683 0.277  0.307
##  9     1  1.51  30.4  16.9     5    1.77   0.191 -0.259  0.430  0.284
## 10     1  3.17  15.8  14.5     5    3.15   0.157  0.0193 0.292  0.308
## # ... with 22 more rows, and 2 more variables: .cooksd <dbl>,
## #   .std.resid <dbl>
…
fit_nls_on_bootstrap <- function(split) {
    nls(mpg ~ k / wt + b, analysis(split), start = list(k = 1, b = 0))
}

boot_models <- boots %>% 
    mutate(model = map(splits, fit_nls_on_bootstrap),
           coef_info = map(model, broom::tidy))

boot_coefs <- boot_models %>% 
  unnest(coef_info)

The unnested coefficient information contains a summary of each replication combined in a single data frame:

boot_coefs
## # A tibble: 200 x 6
##    id           term  estimate std.error statistic  p.value
##    <chr>        <chr>    <dbl>     <dbl>     <dbl>    <dbl>
##  1 Bootstrap001 k       42.1        3.76    11.2   2.99e-12
##  2 Bootstrap001 b        5.76       1.43     4.02  3.60e- 4
##  3 Bootstrap002 k       46.3        3.72    12.4   2.26e-13
##  4 Bootstrap002 b        4.10       1.43     2.87  7.38e- 3
##  5 Bootstrap003 k       56.1        3.80    14.7   2.77e-15
##  6 Bootstrap003 b        0.935      1.31     0.713 4.82e- 1
##  7 Bootstrap004 k       43.5        3.39    12.8   1.06e-13
##  8 Bootstrap004 b        4.83       1.33     3.62  1.06e- 3
##  9 Bootstrap005 k       41.3        3.74    11.0   4.26e-12
## 10 Bootstrap005 b        5.37       1.31     4.11  2.81e- 4
## # ... with 190 more rows
…
or we can use augment to visualize the uncertainty in the curve.

boot_aug <- boot_models %>% 
  mutate(augmented = map(model,augment)) %>% 
  unnest(augmented)

boot_aug
## # A tibble: 3,200 x 5
##    id             mpg    wt .fitted .resid
##    <chr>        <dbl> <dbl>   <dbl>  <dbl>
##  1 Bootstrap001  21.4  2.78    20.9  0.484
##  2 Bootstrap001  22.8  2.32    23.9 -1.12 
##  3 Bootstrap001  30.4  1.51    33.6 -3.20 
##  4 Bootstrap001  17.8  3.44    18.0 -0.209
##  5 Bootstrap001  24.4  3.19    19.0  5.43 
##  6 Bootstrap001  17.3  3.73    17.1  0.243
##  7 Bootstrap001  22.8  2.32    23.9 -1.12 
##  8 Bootstrap001  21    2.62    21.8 -0.841
##  9 Bootstrap001  18.7  3.44    18.0  0.691
## 10 Bootstrap001  14.3  3.57    17.6 -3.26 
## # ... with 3,190 more rows
…
The output is a list of vectors, where each component has a different length. Theres one of length 300: the same as our original dataset. There are number of elements of length 3: withiness, tot.withiness and betweeness and centers is a matrix with 3 rows. And then there are the elements of length 1: totss, tot.withiness, betweenss and iter.

These differing lengths have a deeper meaning when we want to tidy our dataset: they signify that each type of component communicates a different kind of information.

cluster (300 values) contains information about each point

centers, withinss and size (3 values) contain information about each cluster

totss, tot.withinss, betweenss, and iter (1 value) contain information about the full clustering

Which of these do we want to extract? There is no right answer: each of them may be interesting to an analyst. Because they communicate entirely different information (not to mention there is no straightfoward way to combine them), they are extracted by separate functions. augment adds the point classifications to the original dataset:

library(broom)
broom::augment(kclust, points)
## # A tibble: 300 x 3
##       x1     x2 .cluster
##    <dbl>  <dbl> <fct>   
##  1  6.91 -2.74  2       
##  2  6.14 -2.45  2       
##  3  4.24 -0.946 2       
##  4  3.54  0.287 2       
##  5  3.91  0.408 2       
##  6  5.30 -1.58  2       
##  7  5.01 -1.77  2       
##  8  6.16 -1.68  2       
##  9  7.13 -2.17  2       
## 10  5.24 -2.42  2       
## # ... with 290 more rows
…
To get started, the types of resampling methods need to be specified. This isnt a large data set, so 5 repeates of 10-fold cross validation will be used as the outer resampling method that will be used to generate the estimate of overall performance. To tune the model, it would be good to have precise estimates for each of the values of the tuning parameter so 25 iterations of the bootstrap will be used. fit This means that there will eventually be 5 * 10 * 25 = 1250 models that are fit to the data per tuning parameter. These will be discarded once the performance of the model has been quantified.

library(rsample) 
results <- nested_cv(train_dat, 
                     outside = vfold_cv(repeats = 5), 
                     inside = bootstraps(times = 25))
results
## [1] "nested_cv"  "vfold_cv"   "rset"       "tbl_df"     "tbl"       
## [6] "data.frame"
## # Nested resampling:
## #  outer: 10-fold cross-validation repeated 5 times
## #  inner: Bootstrap sampling
## # A tibble: 50 x 4
##    splits          id      id2    inner_resamples  
##    <list>          <chr>   <chr>  <list>           
##  1 <split [90/10]> Repeat1 Fold01 <tibble [25 x 2]>
##  2 <split [90/10]> Repeat1 Fold02 <tibble [25 x 2]>
##  3 <split [90/10]> Repeat1 Fold03 <tibble [25 x 2]>
##  4 <split [90/10]> Repeat1 Fold04 <tibble [25 x 2]>
##  5 <split [90/10]> Repeat1 Fold05 <tibble [25 x 2]>
##  6 <split [90/10]> Repeat1 Fold06 <tibble [25 x 2]>
##  7 <split [90/10]> Repeat1 Fold07 <tibble [25 x 2]>
##  8 <split [90/10]> Repeat1 Fold08 <tibble [25 x 2]>
##  9 <split [90/10]> Repeat1 Fold09 <tibble [25 x 2]>
## 10 <split [90/10]> Repeat1 Fold10 <tibble [25 x 2]>
## # ... with 40 more rows

The splitting information for each resample is contained in the split objects. Focusing on the second fold of the first repeat:

results$splits[[2]]
## <90/10/100>

<90/10/100> indicates the number of data in the analysis set, assessment set, and the original data.

Each element of inner_resamples has its own tibble with the bootstrapping splits.

results$inner_resamples[[5]]
## # Bootstrap sampling 
## # A tibble: 25 x 2
##    splits          id         
##    <list>          <chr>      
##  1 <split [90/37]> Bootstrap01
##  2 <split [90/31]> Bootstrap02
##  3 <split [90/28]> Bootstrap03
##  4 <split [90/37]> Bootstrap04
##  5 <split [90/32]> Bootstrap05
##  6 <split [90/34]> Bootstrap06
##  7 <split [90/32]> Bootstrap07
##  8 <split [90/30]> Bootstrap08
##  9 <split [90/35]> Bootstrap09
## 10 <split [90/41]> Bootstrap10
## # ... with 15 more rows
…
The next section will explore recipes and bootstrap resampling for modeling:

library(rsample)
set.seed(7712)
bt_samples <- bootstraps(ames)
bt_samples
## # Bootstrap sampling 
## # A tibble: 25 x 2
##    splits              id         
##    <list>              <chr>      
##  1 <split [2.9K/1.1K]> Bootstrap01
##  2 <split [2.9K/1.1K]> Bootstrap02
##  3 <split [2.9K/1.1K]> Bootstrap03
##  4 <split [2.9K/1K]>   Bootstrap04
##  5 <split [2.9K/1.1K]> Bootstrap05
##  6 <split [2.9K/1.1K]> Bootstrap06
##  7 <split [2.9K/1.1K]> Bootstrap07
##  8 <split [2.9K/1K]>   Bootstrap08
##  9 <split [2.9K/1.1K]> Bootstrap09
## 10 <split [2.9K/1.1K]> Bootstrap10
## # ... with 15 more rows
bt_samples$splits[[1]]
## <2930/1076/2930>

2.2.2 Working with Rsamples

We can add a recipe column to the tibble. recipes has a connivence function called prepper that can be used to call prep but has the split object as the first argument (for easier purring):

library(purrr)

bt_samples$recipes <- map(bt_samples$splits, prepper, recipe=rec)
bt_samples
## # Bootstrap sampling 
## # A tibble: 25 x 3
##    splits              id          recipes     
##    <list>              <chr>       <list>      
##  1 <split [2.9K/1.1K]> Bootstrap01 <S3: recipe>
##  2 <split [2.9K/1.1K]> Bootstrap02 <S3: recipe>
##  3 <split [2.9K/1.1K]> Bootstrap03 <S3: recipe>
##  4 <split [2.9K/1K]>   Bootstrap04 <S3: recipe>
##  5 <split [2.9K/1.1K]> Bootstrap05 <S3: recipe>
##  6 <split [2.9K/1.1K]> Bootstrap06 <S3: recipe>
##  7 <split [2.9K/1.1K]> Bootstrap07 <S3: recipe>
##  8 <split [2.9K/1K]>   Bootstrap08 <S3: recipe>
##  9 <split [2.9K/1.1K]> Bootstrap09 <S3: recipe>
## 10 <split [2.9K/1.1K]> Bootstrap10 <S3: recipe>
## # ... with 15 more rows
…
Now to fit the model, the fit function only needs the recipe as input. This is because the above code implicitly used the retain=TRUE option in prep. Otherwise, the split objects would also be needed to bake the recipe (as it will in the prediction function below).

fit_lm <- function(rec_obj, ...){
  lm(..., data = juice(rec_obj, everything()))
}

bt_samples$lm_mod <- 
  map(bt_samples$recipes,
      fit_lm,
      Sale_Price ~.
      )

bt_samples
## # Bootstrap sampling 
## # A tibble: 25 x 4
##    splits              id          recipes      lm_mod  
##    <list>              <chr>       <list>       <list>  
##  1 <split [2.9K/1.1K]> Bootstrap01 <S3: recipe> <S3: lm>
##  2 <split [2.9K/1.1K]> Bootstrap02 <S3: recipe> <S3: lm>
##  3 <split [2.9K/1.1K]> Bootstrap03 <S3: recipe> <S3: lm>
##  4 <split [2.9K/1K]>   Bootstrap04 <S3: recipe> <S3: lm>
##  5 <split [2.9K/1.1K]> Bootstrap05 <S3: recipe> <S3: lm>
##  6 <split [2.9K/1.1K]> Bootstrap06 <S3: recipe> <S3: lm>
##  7 <split [2.9K/1.1K]> Bootstrap07 <S3: recipe> <S3: lm>
##  8 <split [2.9K/1K]>   Bootstrap08 <S3: recipe> <S3: lm>
##  9 <split [2.9K/1.1K]> Bootstrap09 <S3: recipe> <S3: lm>
## 10 <split [2.9K/1.1K]> Bootstrap10 <S3: recipe> <S3: lm>
## # ... with 15 more rows
…
bt_samples$pred <- 
  pmap(
    list( #lst
      split_obj = bt_samples$splits,
      rec_obj = bt_samples$recipes,
      model_obj = bt_samples$lm_mod
    ),
    pred_lm
  )
bt_samples
## # Bootstrap sampling 
## # A tibble: 25 x 5
##    splits              id          recipes      lm_mod  pred              
##    <list>              <chr>       <list>       <list>  <list>            
##  1 <split [2.9K/1.1K]> Bootstrap01 <S3: recipe> <S3: l~ <tibble [1,076 x ~
##  2 <split [2.9K/1.1K]> Bootstrap02 <S3: recipe> <S3: l~ <tibble [1,105 x ~
##  3 <split [2.9K/1.1K]> Bootstrap03 <S3: recipe> <S3: l~ <tibble [1,102 x ~
##  4 <split [2.9K/1K]>   Bootstrap04 <S3: recipe> <S3: l~ <tibble [1,015 x ~
##  5 <split [2.9K/1.1K]> Bootstrap05 <S3: recipe> <S3: l~ <tibble [1,070 x ~
##  6 <split [2.9K/1.1K]> Bootstrap06 <S3: recipe> <S3: l~ <tibble [1,058 x ~
##  7 <split [2.9K/1.1K]> Bootstrap07 <S3: recipe> <S3: l~ <tibble [1,081 x ~
##  8 <split [2.9K/1K]>   Bootstrap08 <S3: recipe> <S3: l~ <tibble [1,048 x ~
##  9 <split [2.9K/1.1K]> Bootstrap09 <S3: recipe> <S3: l~ <tibble [1,090 x ~
## 10 <split [2.9K/1.1K]> Bootstrap10 <S3: recipe> <S3: l~ <tibble [1,072 x ~
## # ... with 15 more rows
…
Calculating the RMSE:

library(yardstick)

results <- map_dfr(bt_samples$pred, rmse, Sale_Price, predicted)
results 
## # A tibble: 25 x 3
##    .metric .estimator .estimate
##    <chr>   <chr>          <dbl>
##  1 rmse    standard       0.135
##  2 rmse    standard       0.137
##  3 rmse    standard       0.133
##  4 rmse    standard       0.127
##  5 rmse    standard       0.130
##  6 rmse    standard       0.126
##  7 rmse    standard       0.126
##  8 rmse    standard       0.136
##  9 rmse    standard       0.131
## 10 rmse    standard       0.140
## # ... with 15 more rows
…
Each row is a month of sales (in millions of US dolloars). Suppose that predictions for one year ahead were needed and the model should use the most recent data from the last 20 years. To setup this resampling scheme:

roll_rs <- rolling_origin(
  drinks,
  initial = 12*20,
  assess = 12,
  cumulative = FALSE
)

nrow(roll_rs)
## [1] 58
roll_rs
## # Rolling origin forecast resampling 
## # A tibble: 58 x 2
##    splits           id     
##    <list>           <chr>  
##  1 <split [240/12]> Slice01
##  2 <split [240/12]> Slice02
##  3 <split [240/12]> Slice03
##  4 <split [240/12]> Slice04
##  5 <split [240/12]> Slice05
##  6 <split [240/12]> Slice06
##  7 <split [240/12]> Slice07
##  8 <split [240/12]> Slice08
##  9 <split [240/12]> Slice09
## 10 <split [240/12]> Slice10
## # ... with 48 more rows
…
Note that the real variables are listed (e.g., Home etc.) insted of the selectors (all_predictors()). Now that the statistics have been estimated, the preprocessing can be applied to the training and test set:

train_data <- bake(trained_rec, new_data = credit_train)
test_data <- bake(trained_rec, new_data = credit_test)

bake returns a tible that, by default, includes all of the variables:

class(test_data)
## [1] "tbl_df"     "tbl"        "data.frame"
test_data
## # A tibble: 1,113 x 23
##    Status Seniority   Time      Age Expenses   Income  Assets    Debt
##    <fct>      <dbl>  <dbl>    <dbl>    <dbl>    <dbl>   <dbl>   <dbl>
##  1 good      -0.987  0.938 -1.19       0.376  0.497   -0.243  -0.275 
##  2 good      -0.987 -0.724 -1.01      -0.499 -0.447   -0.457  -0.275 
##  3 good      -0.987  0.938 -0.464      1.76  -0.447    0.827  -0.275 
##  4 good       1.36  -0.724 -0.00678    0.993  0.346   -0.157  -0.0739
##  5 bad       -0.740  0.938 -1.10      -0.499 -0.447   -0.457  -0.275 
##  6 bad       -0.864  0.938  0.724      2.54  -0.384   -0.285   0.112 
##  7 good       2.23   0.938  1.27      -0.550  0.00644 -0.157  -0.275 
##  8 good       1.36   0.938  0.541      0.993  0.472   -0.114  -0.275 
##  9 bad       -0.616 -1.56  -1.29       0.993 -0.723   -0.0287 -0.275 
## 10 good       2.97  -1.56   2.28      -0.550 -0.296    0.271  -0.275 
## # ... with 1,103 more rows, and 15 more variables: Amount <dbl>,
## #   Price <dbl>, Home_other <dbl>, Home_owner <dbl>, Home_parents <dbl>,
## #   Home_priv <dbl>, Home_rent <dbl>, Marital_married <dbl>,
## #   Marital_separated <dbl>, Marital_single <dbl>, Marital_widow <dbl>,
## #   Records_yes <dbl>, Job_freelance <dbl>, Job_others <dbl>,
## #   Job_partime <dbl>
…
