UC business Analytics R programming Guide
…
sometimes too much spent in testing (\(>40%\)) wont allow us to get a good assessment of model parameters.

Typically, we are lacking in the size of our data here, so a 70-30 split is often sufficinet. The two most common ways of splittin data include simple random sampling and stratified sampling.

2.1.1.2.2 Simple random sampling

The simplest way to split the data into training and test sets is to take a simple random sample. This does not control for any data attributes, such as the percentage of data in the quantiles in your response variable (\(y\)). There are multiple ways to split our data. Here we show four options to produce a 70-30 split (note that setting the seed value allows you to reproduce your randomized splits):

# base R
df <- ames
df.h2o <- ames.h2o

set.seed(123)
df
## # A tibble: 2,930 x 81
##    MS_SubClass MS_Zoning Lot_Frontage Lot_Area Street Alley Lot_Shape
##    <fct>       <fct>            <dbl>    <int> <fct>  <fct> <fct>    
##  1 One_Story_~ Resident~          141    31770 Pave   No_A~ Slightly~
##  2 One_Story_~ Resident~           80    11622 Pave   No_A~ Regular  
##  3 One_Story_~ Resident~           81    14267 Pave   No_A~ Slightly~
##  4 One_Story_~ Resident~           93    11160 Pave   No_A~ Regular  
##  5 Two_Story_~ Resident~           74    13830 Pave   No_A~ Slightly~
##  6 Two_Story_~ Resident~           78     9978 Pave   No_A~ Slightly~
##  7 One_Story_~ Resident~           41     4920 Pave   No_A~ Regular  
##  8 One_Story_~ Resident~           43     5005 Pave   No_A~ Slightly~
##  9 One_Story_~ Resident~           39     5389 Pave   No_A~ Slightly~
## 10 Two_Story_~ Resident~           60     7500 Pave   No_A~ Regular  
## # ... with 2,920 more rows, and 74 more variables: Land_Contour <fct>,
## #   Utilities <fct>, Lot_Config <fct>, Land_Slope <fct>,
## #   Neighborhood <fct>, Condition_1 <fct>, Condition_2 <fct>,
## #   Bldg_Type <fct>, House_Style <fct>, Overall_Qual <fct>,
## #   Overall_Cond <fct>, Year_Built <int>, Year_Remod_Add <int>,
## #   Roof_Style <fct>, Roof_Matl <fct>, Exterior_1st <fct>,
## #   Exterior_2nd <fct>, Mas_Vnr_Type <fct>, Mas_Vnr_Area <dbl>,
## #   Exter_Qual <fct>, Exter_Cond <fct>, Foundation <fct>, Bsmt_Qual <fct>,
## #   Bsmt_Cond <fct>, Bsmt_Exposure <fct>, BsmtFin_Type_1 <fct>,
…
2.1.2.1.1 Replication requirements

This tutorial primarily leverages this advertising data provided by the authors of an Introduction to Statistical Learning. This is a simple data set that contains, in thousands of dolloars, TV, Radio, and Newspaper budgets for 200 different markets along with the Sales, in thousands of units, for each market. We will also use a few package that provide data manipulation, visualization, pipeline modeling functions, and model output tidying functions.

# Packages
library(tidyverse) # data manipulation and visualizations
library(modelr)# provides easy pipeline modeling functions
library(broom) # helps to tidy up model outputs

advertising <- read_csv("http://www-bcf.usc.edu/~gareth/ISL/Advertising.csv") %>%
   select(-X1)

advertising
## # A tibble: 200 x 4
##       TV radio newspaper sales
##    <dbl> <dbl>     <dbl> <dbl>
##  1 230.   37.8      69.2  22.1
##  2  44.5  39.3      45.1  10.4
##  3  17.2  45.9      69.3   9.3
##  4 152.   41.3      58.5  18.5
##  5 181.   10.8      58.4  12.9
##  6   8.7  48.9      75     7.2
##  7  57.5  32.8      23.5  11.8
##  8 120.   19.6      11.6  13.2
##  9   8.6   2.1       1     4.8
## 10 200.    2.6      21.2  10.6
## # ... with 190 more rows
…
First is a plot of residual versus fitter values. This will signal two important concerns:

Non-linearity: if a discernible pattern (blue line) exists then this suggests either non-linearity or that other attributes have not been adequately captured. Our plot indicates that the assumption of linearity is fair.

Heteroskedasticity: an important assumption of linear regression is that the error terms have a constant variance, \(Var(\epsilon)=\sigma^2\). If there is a funnel shape with our residuals, as in our plot, then we have violated this assumption. Sometimes this can be resolved with a log or square root transformation of \(Y\) in our model.

# add model diagnostics to our training data
model1_results <- augment(model1, train)
model1_results
## # A tibble: 122 x 11
##       TV radio newspaper sales .fitted .se.fit   .resid   .hat .sigma
##  * <dbl> <dbl>     <dbl> <dbl>   <dbl>   <dbl>    <dbl>  <dbl>  <dbl>
##  1 230.   37.8      69.2  22.1   18.3    0.392  3.77    0.0149   3.20
##  2  17.2  45.9      69.3   9.3    7.63   0.556  1.67    0.0301   3.21
##  3   8.7  48.9      75     7.2    7.20   0.581 -0.00157 0.0329   3.22
##  4  57.5  32.8      23.5  11.8    9.66   0.443  2.14    0.0191   3.21
##  5   8.6   2.1       1     4.8    7.20   0.582 -2.40    0.0329   3.21
##  6 200.    2.6      21.2  10.6   16.8    0.330 -6.21    0.0106   3.17
##  7 215.   24         4    17.4   17.6    0.358 -0.160   0.0125   3.22
##  8  97.5   7.6       7.2   9.7   11.7    0.350 -1.97    0.0119   3.21
##  9 204.   32.9      46    19     17.0    0.338  1.97    0.0111   3.21
## 10  67.8  36.6     114    12.5   10.2    0.417  2.33    0.0169   3.21
## # ... with 112 more rows, and 2 more variables: .cooksd <dbl>,
## #   .std.resid <dbl>
…
So, what does having patterns in residuals mean to your research? Its not just a go-or-stop sign. It tells you about your model and data. Your current model might not be the best way to understand your data if theres so much good stuff left in the data.

In that case, you may want to go back to your theory and hypotheses. Is it really a linear relationship between the predictors and the outcome? You may want to include a quadratic term, for example. A log transformation may better represent the phenomena that youd like to model. Or, is there any important variable that you left out from your model? Other variables you didnt include (e.g., Radio or Newspaper advertising budgets) may play an important role in your model and data. Or, maybe, your data were systematically biased when collecting data. You may want to redesign data collection methods.

Checking residuals is a way to discover new insights in your model and data!

2.1.2.2.5 Making predictions

Often the goal with regression approaches is to make predictions on new data. To assess how well our model do in this endeavor we need to assess how it does in making predictions against our test data set. This informs us how well our model generalizes to data outside our training set. We can use our model to predict Sales values for our test data by using add_predictions.

test <- test %>% 
  add_predictions(model1)
test
## # A tibble: 78 x 5
##       TV radio newspaper sales  pred
##    <dbl> <dbl>     <dbl> <dbl> <dbl>
##  1  44.5  39.3      45.1  10.4  9.00
##  2 152.   41.3      58.5  18.5 14.4 
##  3 181.   10.8      58.4  12.9 15.9 
##  4 120.   19.6      11.6  13.2 12.8 
##  5  66.1   5.8      24.2   8.6 10.1 
##  6  23.8  35.1      65.9   9.2  7.96
##  7 195.   47.7      52.9  22.4 16.6 
##  8 147.   23.9      19.1  14.6 14.2 
##  9 218.   27.7      53.4  18   17.7 
## 10 237.    5.1      23.5  12.5 18.7 
## # ... with 68 more rows
…
Comparing models: Determining which model is best

Additional resources: additional resources to help you learn more

2.1.3.2 Replication requirements

This tutorial primary leverages the Hitters data provided by the ISLR package. This is a data set that contains number of hits, homeruns, RBIs, and other information for 322 major league baseball players. Well also use tidyverse for some basic data manipulation and visualization. Most importantly, well use the leaps package to illustrate subset selection methods.

# package
library(leaps) # model selection functions

# load data and remove rows with missing data
(hitters <- na.omit(ISLR::Hitters) %>% 
  as_tibble())
## # A tibble: 263 x 20
##    AtBat  Hits HmRun  Runs   RBI Walks Years CAtBat CHits CHmRun CRuns
##  * <int> <int> <int> <int> <int> <int> <int>  <int> <int>  <int> <int>
##  1   315    81     7    24    38    39    14   3449   835     69   321
##  2   479   130    18    66    72    76     3   1624   457     63   224
##  3   496   141    20    65    78    37    11   5628  1575    225   828
##  4   321    87    10    39    42    30     2    396   101     12    48
##  5   594   169     4    74    51    35    11   4408  1133     19   501
##  6   185    37     1    23     8    21     2    214    42      1    30
##  7   298    73     0    24    24     7     3    509   108      0    41
##  8   323    81     6    26    32     8     2    341    86      6    32
##  9   401    92    17    49    66    65    13   5206  1332    253   784
## 10   574   159    21   107    75    59    10   4631  1300     90   702
## # ... with 253 more rows, and 9 more variables: CRBI <int>, CWalks <int>,
## #   League <fct>, Division <fct>, PutOuts <int>, Assists <int>,
## #   Errors <int>, Salary <dbl>, NewLeague <fct>
…
Multiple Logistic regression: Predicting the probability of response Y with multiple predictor variables \(X_1, X_2,...X_p\)

Model evaluation & diagnostics: How well does the model fit the data? Which predictors are most important? Are the predictions accurate?

2.1.5.2 Replication requirements

This tutorial primarily leverages the Default data provided by the ISLR package. This is simulated data set containing information on ten thousand customers such as whether the customer defaulted, is a student, the average balance carried by the customer and the income of the customer. Well also use a few packages that provide data manipulation, visualization, pipeline modeling functions, and model output tidying functions.

library(tidyverse)
library(modelr)
library(broom)

# load data
(default <- as_tibble(ISLR::Default))
## # A tibble: 10,000 x 4
##    default student balance income
##    <fct>   <fct>     <dbl>  <dbl>
##  1 No      No         730. 44362.
##  2 No      Yes        817. 12106.
##  3 No      No        1074. 31767.
##  4 No      No         529. 35704.
##  5 No      No         786. 38463.
##  6 No      Yes        920.  7492.
##  7 No      No         826. 24905.
##  8 No      Yes        809. 17600.
##  9 No      No        1161. 37469.
## 10 No      No           0  29275.
## # ... with 9,990 more rows
…
